2022-11-26T22:32:08Z [62439] [release 1.1.0] [command] git fetch origin releases:releases --update-head-ok -> 0
2022-11-26T22:32:09Z [62439] [release 1.1.0] [command] git fetch origin master:master --update-head-ok -> 0
2022-11-26T22:32:09Z [62439] [release 1.1.0] [command] git flow release start 1.1.0 -> 0
2022-11-26T22:32:12Z [62439] [release 1.1.0] [command] mvn versions:set -DnewVersion=1.1.0 -> 0
2022-11-26T22:32:29Z [62439] [release 1.1.0] [command] mvn -U clean test -Dorg.slf4j.simpleLogger.defaultLogLevel=warn -> 0
2022-11-26T22:32:54Z [62439] [release 1.1.0] [command] git commit -a -m release: Upgrade version to 1.1.0
2022-11-26T22:32:56Z [62439] [release 1.1.0] [command] git flow release finish -m release-1.1.0 1.1.0 -> 0
2022-11-26T22:32:58Z [62439] [release 1.1.0] [command] mvn versions:set -DnewVersion=1.2.0-SNAPSHOT -> 0
2022-11-26T22:32:58Z [62439] [release 1.1.0] [command] git commit -a -m release: Upgrade version to 1.2.0-SNAPSHOT
2022-11-28T12:44:00Z [65610] [release 1.2.0] [command] git fetch origin releases:releases --update-head-ok -> 0
2022-11-28T12:44:00Z [65610] [release 1.2.0] [command] git fetch origin master:master --update-head-ok -> 0
2022-11-28T12:44:01Z [65610] [release 1.2.0] [command] git flow release start 1.2.0 -> 0
2022-11-28T12:44:04Z [65610] [release 1.2.0] [command] mvn versions:set -DnewVersion=1.2.0 -> 0
2022-11-28T12:44:23Z [65610] [release 1.2.0] [command] mvn -U clean test -Dorg.slf4j.simpleLogger.defaultLogLevel=warn -> 0
2022-11-28T12:45:55Z [65610] [release 1.2.0] [command] git commit -a -m release: Upgrade version to 1.2.0
2022-11-28T12:45:56Z [65610] [release 1.2.0] [command] git flow release finish -m release-1.2.0 1.2.0 -> 0
2022-11-28T12:45:59Z [65610] [release 1.2.0] [command] mvn versions:set -DnewVersion=1.3.0-SNAPSHOT -> 0
2022-11-28T12:45:59Z [65610] [release 1.2.0] [command] git commit -a -m release: Upgrade version to 1.3.0-SNAPSHOT
2023-08-31T17:04:31Z [8512] [release 1.3.0] [command] git fetch origin releases:releases --update-head-ok -> 0
2023-08-31T17:04:32Z [8512] [release 1.3.0] [command] git fetch origin master:master --update-head-ok -> 0
2023-08-31T17:04:33Z [8512] [release 1.3.0] [command] git flow release start 1.3.0 -> 0
2023-08-31T17:04:37Z [8512] [release 1.3.0] [command] mvn versions:set -DnewVersion=1.3.0 -> 0
2023-08-31T17:05:05Z [8512] [release 1.3.0] [command] mvn -U clean test -Dorg.slf4j.simpleLogger.defaultLogLevel=warn -> 0
2023-08-31T17:05:08Z [8512] [release 1.3.0] [command] git commit -a -m release: Upgrade version to 1.3.0
2023-08-31T17:05:10Z [8512] [release 1.3.0] [command] git flow release finish -m release-1.3.0 1.3.0 -> 0
2023-08-31T17:05:12Z [8512] [release 1.3.0] [command] mvn versions:set -DnewVersion=1.4.0-SNAPSHOT -> 0
2023-08-31T17:05:12Z [8512] [release 1.3.0] [command] git commit -a -m release: Upgrade version to 1.4.0-SNAPSHOT
2024-04-17T17:05:25Z [14210] [release 1.4.0] [command] git fetch origin releases:releases --update-head-ok -> 0
2024-04-17T17:05:26Z [14210] [release 1.4.0] [command] git fetch origin master:master --update-head-ok -> 0
2024-04-17T17:05:26Z [14210] [release 1.4.0] [command] git flow release start 1.4.0 -> 0
2024-04-17T17:05:27Z [14210] [release 1.4.0] [command] mvn versions:set -DnewVersion=1.4.0 -> 0
2024-04-17T17:05:48Z [14210] [release 1.4.0] [command] mvn -U clean test -Dorg.slf4j.simpleLogger.defaultLogLevel=warn -> 0
2024-04-17T17:07:59Z [14210] [release 1.4.0] [command] git commit -a -m release: Upgrade version to 1.4.0
2024-04-17T17:07:59Z [14210] [release 1.4.0] [command] git flow release finish -m release-1.4.0 1.4.0 -> 0
2024-04-17T17:08:01Z [14210] [release 1.4.0] [command] mvn versions:set -DnewVersion=1.5.0-SNAPSHOT -> 0
2024-04-17T17:08:01Z [14210] [release 1.4.0] [command] git commit -a -m release: Upgrade version to 1.5.0-SNAPSHOT
2024-04-23T16:48:59Z [63486] [release 1.5.0] [command] git fetch origin releases:releases --update-head-ok -> 0
2024-04-23T16:49:01Z [63486] [release 1.5.0] [command] git fetch origin master:master --update-head-ok -> 0
2024-04-23T16:49:01Z [63486] [release 1.5.0] [command] git flow release start 1.5.0 -> 0
2024-04-23T16:49:02Z [63486] [release 1.5.0] [command] mvn versions:set -DnewVersion=1.5.0 -> 0
2024-04-23T16:49:22Z [63486] [release 1.5.0] [command] mvn -U clean test -Dorg.slf4j.simpleLogger.defaultLogLevel=warn -> 0
2024-04-23T16:49:23Z [63486] [release 1.5.0] [command] git commit -a -m release: Upgrade version to 1.5.0
2024-04-23T16:49:24Z [63486] [release 1.5.0] [command] git flow release finish -m release-1.5.0 1.5.0 -> 0
2024-04-23T16:49:25Z [63486] [release 1.5.0] [command] mvn versions:set -DnewVersion=1.6.0-SNAPSHOT -> 0
2024-04-23T16:49:25Z [63486] [release 1.5.0] [command] git commit -a -m release: Upgrade version to 1.6.0-SNAPSHOT
2024-07-25T19:20:01Z [2727] [release 1.6.0] [command] git fetch origin releases:releases --update-head-ok -> 0
2024-07-25T19:20:02Z [2727] [release 1.6.0] [command] git fetch origin master:master --update-head-ok -> 0
2024-07-25T19:20:03Z [2727] [release 1.6.0] [command] git flow release start 1.6.0 -> 0
2024-07-25T19:20:04Z [2727] [release 1.6.0] [command] mvn versions:set -DnewVersion=1.6.0 -> 0
2024-07-25T19:20:25Z [2727] [release 1.6.0] [command] mvn -U clean test -Dorg.slf4j.simpleLogger.defaultLogLevel=warn -> 0
2024-07-25T19:20:30Z [2727] [release 1.6.0] [command] git commit -a -m release: Upgrade version to 1.6.0
2024-07-25T19:20:31Z [2727] [release 1.6.0] [command] git flow release finish -m release-1.6.0 1.6.0 -> 0
2024-07-25T19:20:32Z [2727] [release 1.6.0] [command] mvn versions:set -DnewVersion=1.7.0-SNAPSHOT -> 0
2024-07-25T19:20:32Z [2727] [release 1.6.0] [command] git commit -a -m release: Upgrade version to 1.7.0-SNAPSHOT
